{
  "$schema": "../../node_modules/nx/schemas/project-schema.json",
  "sourceRoot": "apps/admin/src",
  "projectType": "application",
  "targets": {
    "build": {
      "executor": "@nrwl/web:webpack",
      "outputs": ["{options.outputPath}"],
      "defaultConfiguration": "production",
      "options": {
        "compiler": "babel",
        "outputPath": "dist/apps/admin",
        "index": "apps/admin/src/index.html",
        "baseHref": "/",
        "main": "apps/admin/src/main.tsx",
        "polyfills": "apps/admin/src/polyfills.ts",
        "tsConfig": "apps/admin/tsconfig.app.json",
        "assets": ["apps/admin/src/favicon.ico", "apps/admin/src/assets"],
        "styles": [],
        "scripts": [],
        "webpackConfig": "@nrwl/react/plugins/webpack"
      },
      "configurations": {
        "development": {
          "extractLicenses": false,
          "optimization": false,
          "sourceMap": true,
          "vendorChunk": true
        },
        "production": {
          "fileReplacements": [
            {
              "replace": "apps/admin/src/environments/environment.ts",
              "with": "apps/admin/src/environments/environment.prod.ts"
            }
          ],
          "optimization": true,
          "outputHashing": "all",
          "sourceMap": false,
          "namedChunks": false,
          "extractLicenses": true,
          "vendorChunk": false
        }
      }
    },
    "serve": {
      "executor": "@nrwl/web:dev-server",
      "defaultConfiguration": "development",
      "options": {
        "buildTarget": "admin:build",
        "hmr": true,
        "port": 5000,
        "host": "0.0.0.0",
        "proxyConfig": "apps/admin/proxy.conf.json"
      },
      "configurations": {
        "development": {
          "buildTarget": "admin:build:development"
        },
        "production": {
          "buildTarget": "admin:build:production",
          "hmr": false
        }
      }
    },
    "lint": {
      "executor": "@nrwl/linter:eslint",
      "outputs": ["{options.outputFile}"],
      "options": {
        "lintFilePatterns": ["apps/admin/**/*.{ts,tsx,js,jsx}"]
      }
    },
    "test": {
      "executor": "@nrwl/jest:jest",
      "outputs": ["coverage/apps/admin"],
      "options": {
        "jestConfig": "apps/admin/jest.config.ts",
        "passWithNoTests": true
      }
    }
  },
  "tags": []
}
